{
  "images" : [
    {
      "idiom" : "iphone",
      "scale" : "1x"
    },
    {
      "idiom" : "iphone",
      "scale" : "2x",
      "filename" : "theme_sports_BG.png"
    },
    {
      "idiom" : "iphone",
      "filename" : "theme_sports_BG-4.png",
      "subtype" : "retina4",
      "scale" : "2x"
    },
    {
      "idiom" : "ipad",
      "scale" : "1x",
      "filename" : "theme_sports_BG-1.png"
    },
    {
      "idiom" : "ipad",
      "scale" : "2x",
      "filename" : "theme_sports_BG-2.png"
    },
    {
      "idiom" : "iphone",
      "unassigned" : true
    },
    {
      "idiom" : "iphone",
      "unassigned" : true
    }
  ],
  "info" : {
    "version" : 1,
    "author" : "xcode"
  }
}