{
  "images" : [
    {
      "idiom" : "iphone",
      "scale" : "1x"
    },
    {
      "idiom" : "iphone",
      "scale" : "2x",
      "filename" : "ROARING SIL2b-2.png"
    },
    {
      "idiom" : "ipad",
      "scale" : "1x",
      "filename" : "ROARING SIL2b-1.png"
    },
    {
      "idiom" : "ipad",
      "scale" : "2x",
      "filename" : "ROARING SIL2b.png"
    },
    {
      "idiom" : "universal",
      "unassigned" : true
    },
    {
      "idiom" : "iphone",
      "unassigned" : true
    }
  ],
  "info" : {
    "version" : 1,
    "author" : "xcode"
  }
}