{
  "images" : [
    {
      "idiom" : "iphone",
      "scale" : "1x"
    },
    {
      "idiom" : "iphone",
      "scale" : "2x",
      "filename" : "chip_bag@2x.png"
    },
    {
      "idiom" : "ipad",
      "scale" : "1x",
      "filename" : "chips_forgreenpanel_2 copy.png"
    },
    {
      "idiom" : "ipad",
      "scale" : "2x",
      "filename" : "chips_forgreenpanel_2.png"
    },
    {
      "idiom" : "iphone",
      "unassigned" : true
    }
  ],
  "info" : {
    "version" : 1,
    "author" : "xcode"
  }
}