{
  "images" : [
    {
      "idiom" : "iphone",
      "scale" : "1x"
    },
    {
      "idiom" : "iphone",
      "scale" : "2x",
      "filename" : "coins_15000-2.png"
    },
    {
      "idiom" : "ipad",
      "scale" : "1x",
      "filename" : "coins_15000-1.png"
    },
    {
      "idiom" : "ipad",
      "scale" : "2x",
      "filename" : "coins_15000.png"
    },
    {
      "idiom" : "iphone",
      "unassigned" : true
    }
  ],
  "info" : {
    "version" : 1,
    "author" : "xcode"
  }
}