{
  "images" : [
    {
      "idiom" : "iphone",
      "scale" : "1x"
    },
    {
      "idiom" : "iphone",
      "scale" : "2x",
      "filename" : "chat_input_bg@2x.png"
    },
    {
      "idiom" : "ipad",
      "scale" : "1x",
      "filename" : "BINGO CHAT INPUT SEND copy.png"
    },
    {
      "idiom" : "ipad",
      "scale" : "2x",
      "filename" : "BINGO CHAT INPUT SEND.png"
    },
    {
      "idiom" : "iphone",
      "unassigned" : true
    }
  ],
  "info" : {
    "version" : 1,
    "author" : "xcode"
  }
}